%YAML 1.1
%TAG !u! tag:unity3d.com,2011:
--- !u!1001 &5329982598873345401
PrefabInstance:
  m_ObjectHideFlags: 0
  serializedVersion: 2
  m_Modification:
    m_TransformParent: {fileID: 0}
    m_Modifications:
    - target: {fileID: 197902, guid: ead9801f36e2e874b86b995c242ab482, type: 3}
      propertyPath: m_Name
      value: Bridge
      objectReference: {fileID: 0}
    - target: {fileID: 428974, guid: ead9801f36e2e874b86b995c242ab482, type: 3}
      propertyPath: m_LocalPosition.x
      value: -17.1
      objectReference: {fileID: 0}
    - target: {fileID: 428974, guid: ead9801f36e2e874b86b995c242ab482, type: 3}
      propertyPath: m_LocalPosition.y
      value: -1.9
      objectReference: {fileID: 0}
    - target: {fileID: 428974, guid: ead9801f36e2e874b86b995c242ab482, type: 3}
      propertyPath: m_LocalPosition.z
      value: 16.9
      objectReference: {fileID: 0}
    - target: {fileID: 428974, guid: ead9801f36e2e874b86b995c242ab482, type: 3}
      propertyPath: m_LocalRotation.x
      value: 0
      objectReference: {fileID: 0}
    - target: {fileID: 428974, guid: ead9801f36e2e874b86b995c242ab482, type: 3}
      propertyPath: m_LocalRotation.y
      value: 1
      objectReference: {fileID: 0}
    - target: {fileID: 428974, guid: ead9801f36e2e874b86b995c242ab482, type: 3}
      propertyPath: m_LocalRotation.z
      value: 0
      objectReference: {fileID: 0}
    - target: {fileID: 428974, guid: ead9801f36e2e874b86b995c242ab482, type: 3}
      propertyPath: m_LocalRotation.w
      value: 0
      objectReference: {fileID: 0}
    - target: {fileID: 428974, guid: ead9801f36e2e874b86b995c242ab482, type: 3}
      propertyPath: m_RootOrder
      value: 0
      objectReference: {fileID: 0}
    - target: {fileID: 428974, guid: ead9801f36e2e874b86b995c242ab482, type: 3}
      propertyPath: m_LocalEulerAnglesHint.x
      value: 0
      objectReference: {fileID: 0}
    - target: {fileID: 428974, guid: ead9801f36e2e874b86b995c242ab482, type: 3}
      propertyPath: m_LocalEulerAnglesHint.y
      value: 180
      objectReference: {fileID: 0}
    - target: {fileID: 428974, guid: ead9801f36e2e874b86b995c242ab482, type: 3}
      propertyPath: m_LocalEulerAnglesHint.z
      value: 0
      objectReference: {fileID: 0}
    - target: {fileID: 428974, guid: ead9801f36e2e874b86b995c242ab482, type: 3}
      propertyPath: m_LocalScale.x
      value: 150
      objectReference: {fileID: 0}
    - target: {fileID: 428974, guid: ead9801f36e2e874b86b995c242ab482, type: 3}
      propertyPath: m_LocalScale.y
      value: 75
      objectReference: {fileID: 0}
    - target: {fileID: 428974, guid: ead9801f36e2e874b86b995c242ab482, type: 3}
      propertyPath: m_LocalScale.z
      value: 200
      objectReference: {fileID: 0}
    m_RemovedComponents: []
  m_SourcePrefab: {fileID: 100100000, guid: ead9801f36e2e874b86b995c242ab482, type: 3}
